{
  "page": 2,
  "total_results": 24,
  "total_pages": 2,
  "results": [
    {
      "vote_count": 0,
      "id": 577037,
      "video": false,
      "vote_average": 0,
      "title": "Люби их всех",
      "popularity": 0.6,
      "poster_path": null,
      "original_language": "ru",
      "original_title": "Люби их всех",
      "genre_ids": [
        18
      ],
      "backdrop_path": null,
      "adult": false,
      "overview": "",
      "release_date": "2019-10-03"
    },
    {
      "vote_count": 0,
      "id": 577040,
      "video": false,
      "vote_average": 0,
      "title": "Один день Ивана Денисовича",
      "popularity": 0.6,
      "poster_path": null,
      "original_language": "ru",
      "original_title": "Один день Ивана Денисовича",
      "genre_ids": [
        18
      ],
      "backdrop_path": null,
      "adult": false,
      "overview": "",
      "release_date": "2020-05-09"
    },
    {
      "vote_count": 0,
      "id": 517034,
      "video": false,
      "vote_average": 0,
      "title": "Salvation Union",
      "popularity": 0.6,
      "poster_path": "\/8IAtMLJcrymNaowHkQudapbp8hU.jpg",
      "original_language": "ru",
      "original_title": "Союз спасения",
      "genre_ids": [
        18,
        36,
        12
      ],
      "backdrop_path": null,
      "adult": false,
      "overview": "Russian troops occupied Paris. Russia became the first power in the world. Now everything seems possible. Young winners, guards officers, are sure that equality and freedom will come - here and now. For this they are ready to sacrifice everything - position, wealth, love, life ... and the country itself.",
      "release_date": "2019-12-26"
    },
    {
      "vote_count": 0,
      "id": 587848,
      "video": false,
      "vote_average": 0,
      "title": "Счастье моё",
      "popularity": 0.6,
      "poster_path": "\/n1tlkYsLo76MYz3wtsj4zrYsktX.jpg",
      "original_language": "ru",
      "original_title": "Счастье моё",
      "genre_ids": [
        18,
        10752,
        10749
      ],
      "backdrop_path": null,
      "adult": false,
      "overview": "",
      "release_date": "2020-01-01"
    }
  ]
}