{
    "results": [{
            "vote_count": 28,
            "id": 438674,
            "video": false,
            "vote_average": 6.6,
            "title": "Закатать в асфальт",
            "popularity": 70.933,
            "poster_path": "/c8uwOiMa3sTBEpuXExsu6EGObIB.jpg",
            "original_language": "en",
            "original_title": "Dragged Across Concrete",
            "genre_ids": [
                18,
                80,
                28,
                53
            ],
            "backdrop_path": "/sZUbg9K8zGiUmeVYSlUNelVcuzM.jpg",
            "adult": false,
            "overview": "Двое полицейских, Риджман и Энтони, отстранены от работы из-за слитого в сеть видео, на котором напарники выбивают признание из подозреваемого жесткими методами. Не имея другого выбора, они решают найти работу в криминальном подполье, где им готовят кровавую месть.",
            "release_date": "2019-04-18"
        },
        {
            "vote_count": 142,
            "id": 351044,
            "video": false,
            "vote_average": 6.6,
            "title": "Удивительный мир Марвена",
            "popularity": 56.757,
            "poster_path": "/o45VIAUYDcVCGuzd43l8Sr5Dfti.jpg",
            "original_language": "en",
            "original_title": "Welcome to Marwen",
            "genre_ids": [
                18,
                35,
                14
            ],
            "backdrop_path": "/q9hnJ9SzwcF30seRtXEzLd5l1gw.jpg",
            "adult": false,
            "overview": "Марк Хоганкэмп стал жертвой нападения хулиганов. После жестокого избиения получивший серьезные повреждения головы Марк решает устроить самостоятельную терапию. Он строит населенный куклами игрушечный мир, в котором старается воспроизвести события из своего прошлого.",
            "release_date": "2019-04-18"
        },
        {
            "vote_count": 0,
            "id": 456740,
            "video": false,
            "vote_average": 0,
            "title": "Хеллбой",
            "popularity": 20.084,
            "poster_path": "/fiPioX95qludnX4M0SV5QEcmLDh.jpg",
            "original_language": "en",
            "original_title": "Hellboy",
            "genre_ids": [
                28,
                12,
                14
            ],
            "backdrop_path": "/5BkSkNtfrnTuKOtTaZhl8avn4wU.jpg",
            "adult": false,
            "overview": "Хеллбой отправляется в Англию на встречу с женой Мерлина — Кровавой королевой. От исхода этой битвы зависит судьба всего мира.",
            "release_date": "2019-04-11"
        },
        {
            "vote_count": 0,
            "id": 537915,
            "video": false,
            "vote_average": 0,
            "title": "После",
            "popularity": 12.521,
            "poster_path": "/wqbs8RpJBzEvvZtjPN6nLG2D3kd.jpg",
            "original_language": "en",
            "original_title": "After",
            "genre_ids": [
                18,
                10749,
                53
            ],
            "backdrop_path": "/8lESY7UGpOsbL2caib9Qe4bOebF.jpg",
            "adult": false,
            "overview": "Случайная встреча перевернула их привычный мир. Она — прилежная студентка и образцовая дочь, а он — дьявольски притягательный бунтарь из богатой семьи. Живя в параллельных вселенных, они бы вряд ли даже взглянули друг на друга. Однако этому знакомству суждено разделить жизнь влюбленных на до и после…",
            "release_date": "2019-04-18"
        },
        {
            "vote_count": 17,
            "id": 416144,
            "video": false,
            "vote_average": 7.7,
            "title": "Отель Мумбаи: Противостояние",
            "popularity": 11.508,
            "poster_path": "/gNVJYha77CghmEVIndyD6fn0R2a.jpg",
            "original_language": "en",
            "original_title": "Hotel Mumbai",
            "genre_ids": [
                53,
                18
            ],
            "backdrop_path": "/2WgDlJnkc1klLr1WuCuUTzzmNne.jpg",
            "adult": false,
            "overview": "Фильм повествует о трагических событиях, произошедших в Индии в 2008 году, когда отель Taj Mahal Palace был атакован группой террористов.",
            "release_date": "2019-04-18"
        },
        {
            "vote_count": 35,
            "id": 470894,
            "video": false,
            "vote_average": 6.2,
            "title": "Сверхъестественное",
            "popularity": 11.341,
            "poster_path": "/89nlhnqCLwyQbQnHZuaJwcw21yc.jpg",
            "original_language": "en",
            "original_title": "At First Light",
            "genre_ids": [
                53,
                878,
                18
            ],
            "backdrop_path": "/qG8fPPH1qZc3l9w8Zn43lxzEi4l.jpg",
            "adult": false,
            "overview": "Фильм повествует о старшекласснице Алекс Лейни. Однажды ночью она сталкивается с таинственными огнями, появившимися над ее маленьким городом. Вскоре она узнает, что у нее появились опасные сверхспособности. Не зная, куда податься, девушка обращается за помощью к другу детства Шону. А тем временем власти следуют за ними по пятам, желая выяснить, что случилось с Алекс.",
            "release_date": "2019-04-11"
        },
        {
            "vote_count": 4,
            "id": 480414,
            "video": false,
            "vote_average": 0,
            "title": "Проклятие плачущей",
            "popularity": 10.709,
            "poster_path": "/hR34LVydAq8nDJc1BhIcdqkiQEp.jpg",
            "original_language": "en",
            "original_title": "The Curse of La Llorona",
            "genre_ids": [
                53,
                27,
                9648
            ],
            "backdrop_path": "/u2vGggeMPAkhEtD7bYGfeThsQiM.jpg",
            "adult": false,
            "overview": "Ла Йорона. Плачущая женщина. Вселяющий ужас призрак, затерянный между Раем и Адом и загнанный в ужасную ловушку судьбы, запечатанную его собственной рукой. Простое упоминание ее имени сеет страх по всему миру уже многие поколения. Еще при жизни женщина утопила своих детей в порыве яростной ревности, бросившись в бушующую реку вслед за ними, рыдая от боли и отчаяния. Теперь ее слезы вечны и несут смерть. Тот, кто слышит ее предсмертный крик в ночи, обречен. Ла Йорона крадется в тени и охотится на детей, отчаянно пытаясь восполнить утрату собственных. Проходят столетия, она становится все более ненасытной… а её методы все более ужасными.",
            "release_date": "2019-04-18"
        },
        {
            "vote_count": 530,
            "id": 451480,
            "video": false,
            "vote_average": 7.8,
            "title": "Клуб любителей книг и пирогов из картофельных очистков",
            "popularity": 9.535,
            "poster_path": "/55oz5d6NdH7ohbM1I1Euh1Tt6PN.jpg",
            "original_language": "en",
            "original_title": "The Guernsey Literary & Potato Peel Pie Society",
            "genre_ids": [
                10749,
                18,
                36
            ],
            "backdrop_path": "/s5d3bDvpuABDBqKKoPThPuZsoUS.jpg",
            "adult": false,
            "overview": "Находящаяся в творческом кризисе молодая писательница Джульет Эштон находится в поисках вдохновения. Как-то она знакомится с членами Клуба любителей книг и пирогов из картофельных очистков, чьи жизненные истории приковывают внимание девушки.",
            "release_date": "2019-04-18"
        },
        {
            "vote_count": 128,
            "id": 519106,
            "video": false,
            "vote_average": 6.5,
            "title": "Нежная рука закона",
            "popularity": 8.782,
            "poster_path": "/y3ogB0bGOdV4eroqutkD19Eb740.jpg",
            "original_language": "fr",
            "original_title": "En liberté !",
            "genre_ids": [
                35
            ],
            "backdrop_path": "/6wrqL9N9I8N6Ypl5yUANyJQeQ9h.jpg",
            "adult": false,
            "overview": "Ивонн, молодой полицейский инспектор, неожиданно узнаёт, что её покойный муж на самом деле был не таким уж порядочным служителем закона: оказывается, из-за него невиновный молодой человек по имени Антуан провёл 8 лет в тюрьме. Теперь Ивонн пытается сделать всё возможное, чтобы помочь Антуану вернуться к нормальной жизни.",
            "release_date": "2019-04-11"
        },
        {
            "vote_count": 104,
            "id": 498248,
            "video": false,
            "vote_average": 7.5,
            "title": "Миа и белый лев",
            "popularity": 8.268,
            "poster_path": "/zXfwBeYe0RnqsJ0dnBoFTB4SSrG.jpg",
            "original_language": "fr",
            "original_title": "Mia et le lion blanc",
            "genre_ids": [
                12
            ],
            "backdrop_path": "/aiyXOx5rU7UqYbToD3yDqoFY1gD.jpg",
            "adult": false,
            "overview": "Десятилетняя Миа вместе с родителями и братом переезжает в Южную Африку, где семья покупает ферму по разведению львов. Девочку ничего не радует на новом месте, она чувствует себя чужой и очень одинокой. Но однажды в ее жизни появляется настоящий друг — белый львенок по имени Чарли. Они растут вместе, и с каждым днем растет их крепкая привязанность друг к другу.  Однако три года спустя Мия узнает ужасную новость — Чарли грозит опасность. Тогда она решает сбежать и найти для своего друга новый дом, где он будет счастлив и свободен. Вдвоем девочка и лев отправляются в путешествие по южноафриканской саванне, открывая для себя уникальную красоту Черного Континента.",
            "release_date": "2019-04-11"
        },
        {
            "vote_count": 24,
            "id": 376865,
            "video": false,
            "vote_average": 5.8,
            "title": "Высшее общество",
            "popularity": 6.78,
            "poster_path": "/uHGEyl2pkYVgahGty8txZR6UeTl.jpg",
            "original_language": "en",
            "original_title": "High Life",
            "genre_ids": [
                18,
                878,
                9648,
                27
            ],
            "backdrop_path": "/Ae7N1zenSoalAGsf2UXbQIxX6Pp.jpg",
            "adult": false,
            "overview": "Отец и его дочь отчаянно пытаются выжить в дальнем космосе, куда они попали для прохождения эксперимента.",
            "release_date": "2019-04-11"
        },
        {
            "vote_count": 0,
            "id": 429422,
            "video": false,
            "vote_average": 0,
            "title": "Фонзо",
            "popularity": 5.002,
            "poster_path": "/2ZXVF90O4LdShEnjj2D74OO5cu7.jpg",
            "original_language": "en",
            "original_title": "Fonzo",
            "genre_ids": [
                80,
                18
            ],
            "backdrop_path": null,
            "adult": false,
            "overview": "После длительного тюремного заключения Аль Капоне выходит на свободу. Один из опаснейших и влиятельнейших гангстеров США теперь страдает от психических проблем, которые лишь подкармливаются страшными воспоминаниями из прошлого.",
            "release_date": "2019-04-11"
        },
        {
            "vote_count": 2,
            "id": 477887,
            "video": false,
            "vote_average": 0,
            "title": "Нуреев. Белый ворон",
            "popularity": 3.983,
            "poster_path": "/5OF4zAdfQWKDTiiRpbZvZUsLioq.jpg",
            "original_language": "en",
            "original_title": "The White Crow",
            "genre_ids": [
                18
            ],
            "backdrop_path": "/hFqd6u0oniKkZHneoybfhIe0drQ.jpg",
            "adult": false,
            "overview": "В центре сюжета фильма знаменитый артист балета Рудольф Нуреев, который отказался вернуться в СССР и попросил политического убежища на Западе.",
            "release_date": "2019-04-20"
        },
        {
            "vote_count": 0,
            "id": 509733,
            "video": false,
            "vote_average": 0,
            "title": "Пушистый шпион",
            "popularity": 3.761,
            "poster_path": "/4eYnA7tnWTa5pI9rAOqMD24cbCX.jpg",
            "original_language": "en",
            "original_title": "Marnie's World",
            "genre_ids": [
                16,
                12,
                35
            ],
            "backdrop_path": null,
            "adult": false,
            "overview": "Избалованная рыжая кошечка Марни живет в доме со своей хозяйкой в тепле и уюте и в ус не дует. Но ее жизнь радикально меняется, когда она становится жертвой грабителей-преступников, которые отправляют ее в коробке в другой город. В дороге коробка теряется и Марни оказывается где-то в глухой деревне, один на один с реальной жизнью. Она встречает Пса, Петуха и Осла и тут начинаются приключения… Марни и ее новым друзьям предстоит найти того, кто стоит за загадочными ограблениями в городе и обезвредить эту банду.",
            "release_date": "2019-04-18"
        },
        {
            "vote_count": 4,
            "id": 494974,
            "video": false,
            "vote_average": 0,
            "title": "Код Красный",
            "popularity": 3.509,
            "poster_path": "/ozE2MOSpe2zS94y4aSUt8WVuYDX.jpg",
            "original_language": "en",
            "original_title": "Red Joan",
            "genre_ids": [
                53,
                18
            ],
            "backdrop_path": null,
            "adult": false,
            "overview": "Реальная история русской разведчицы, которая предотвратила Третью мировую войну. Британские спецслужбы гонялась за ней долгие годы, её имя стало легендой, но о её подвиге мы узнали только сейчас, когда был снят гриф секретности.",
            "release_date": "2019-04-18"
        },
        {
            "vote_count": 0,
            "id": 589530,
            "video": false,
            "vote_average": 0,
            "title": "Куда течет море",
            "popularity": 3.027,
            "poster_path": "/yzHQZ7k3GN95eJfFtEqNBt9Kgc2.jpg",
            "original_language": "ru",
            "original_title": "Куда течет море",
            "genre_ids": [
                18
            ],
            "backdrop_path": null,
            "adult": false,
            "overview": "Андрей Сергеевич, известный бизнесмен и политический деятель, приезжает в Санкт-Петербург, где соглашается дать интервью совсем юной журналистке Ирине. Та, пытаясь уложиться в отведенные 30 минут, предлагает очень необычный формат для беседы и садится за рояль… За время этого странного интервью вопросы звучат в основном из уст Андрея Сергеевича, который сначала довольно иронично и снисходительно воспринимает подростковые рассуждения Ирины о смыслах жизни, но затем меняет своё отношение. И только, когда по истечении условленных 30 минут Ирина уходит, герой понимает, что юношеский максимализм этой девушки, в какой-то степени нескладный и нелепый, оправдан очень важными обстоятельствами.",
            "release_date": "2019-04-11"
        },
        {
            "vote_count": 0,
            "id": 586513,
            "video": false,
            "vote_average": 0,
            "title": "Күлүк Хомус",
            "popularity": 2.922,
            "poster_path": null,
            "original_language": "ru",
            "original_title": "Күлүк Хомус",
            "genre_ids": [
                27
            ],
            "backdrop_path": null,
            "adult": false,
            "overview": "Молодая учительница Сардаана приезжает в деревню на работу учителем по контракту. Там знакомится с молодым фотографом Ньургуном. Он приглашает ее посмотреть на музей, которым заправляет его отец. Ньургун отлучается по делам, а Сардаана попадает под влияние зова древнего хомуса в закрытом на замок ящике. Не осознавая, что делает, Сардаана подносит странный хомус к лицу и бьет по язычку. К ней приходит видение, которое она не успевает осознать.",
            "release_date": "2019-04-11"
        },
        {
            "vote_count": 9,
            "id": 543033,
            "video": false,
            "vote_average": 9,
            "title": "Ограбление по Фрейду",
            "popularity": 2.827,
            "poster_path": "/4WwBf5Lex1XUQfS1nREp2a2JZsc.jpg",
            "original_language": "hu",
            "original_title": "Ruben Brandt, a gyűjtő",
            "genre_ids": [
                16,
                28,
                53
            ],
            "backdrop_path": "/xYpubmMGqnsBMKtxSSEUPnzQkkk.jpg",
            "adult": false,
            "overview": "Психоаналитик экстра-класса и рафинированный эстет Рубен Брандт эффективно врачует закоренелых преступников, но сам страдает от ночных кошмаров. Ему кажется, что единственный способ излечиться — выкрасть тринадцать художественных шедевров из самых охраняемых музеев мира. Собрав команду из четырех своих пациентов, он грабит Лувр, галерею Тейт, Эрмитаж и Нью-Йоркский музей современного искусства, превращаясь в самого известного и преследуемого преступника.",
            "release_date": "2019-04-18"
        },
        {
            "vote_count": 0,
            "id": 576026,
            "video": false,
            "vote_average": 0,
            "title": "Домовой",
            "popularity": 2.468,
            "poster_path": "/iue27TMaDlUcAqI36D8r6SxxGae.jpg",
            "original_language": "ru",
            "original_title": "Домовой",
            "genre_ids": [
                35,
                14,
                10751
            ],
            "backdrop_path": "/tqawzOvbpiFzd4koL0Uo8NEXaDW.jpg",
            "adult": false,
            "overview": "В обычном и суетливом городе Москва есть необычный Дом, обросший сотнями тайн и загадок. В этом доме есть странная квартира, в которой еще надолго не задержался ни один жилец. И лишь тогда, когда в эту «милую» квартиру заезжает самостоятельная мама с очаровательной 8-летней дочерью Алиной, новые жильцы узнают, что жилплощадь их — непростая, а живет в ней самый настоящий Домовой. Только вот хранитель очага уже давно обиделся на весь род человеческий и сделает все вообразимые гадости, только бы остаться одному в злополучной квартире. Но всё меняется, когда Домовому бросает вызов злая колдунья…",
            "release_date": "2019-04-11"
        },
        {
            "vote_count": 9,
            "id": 498247,
            "video": false,
            "vote_average": 5.5,
            "title": "SuperЗять",
            "popularity": 2.337,
            "poster_path": "/4Wpqu25xkApQThcocmTJfOGiP1v.jpg",
            "original_language": "fr",
            "original_title": "Le Gendre de ma vie",
            "genre_ids": [
                35
            ],
            "backdrop_path": null,
            "adult": false,
            "overview": "Когда дома и на работе тебя окружают одни женщины, а их проблемы становятся тебе ближе, чем мужские, то ты пытаешься скрыться от всего этого безумия в своём раритетном кабриолете. И всё о чём мечтаешь — это зять. Суперзять! И вот в один прекрасный момент кажется, что небеса услышали тебя, ведь твоя дочь начинает встречаться с красивым и успешным спортсменом! Пока вдруг не выясняется, что что-то пошло не так…",
            "release_date": "2019-04-11"
        }
    ],
    "page": 1,
    "total_results": 24,
    "dates": {
        "maximum": "2019-04-21",
        "minimum": "2019-04-06"
    },
    "total_pages": 2
}